# 3ds Max Wavefront OBJ Exporter v0.97b - (c)2007 guruware
# File Created: 11.05.2011 08:43:10

newmtl _10564_RoadSectionT_v2blinn1SG
	Ns 30.0000
	Ni 1.5000
	d 1.0000
	Tr 0.0000
	Tf 1.0000 1.0000 1.0000 
	illum 2
	Ka 0.0000 0.0000 0.0000
	Kd 0.0000 0.0000 0.0000
	Ks 0.0400 0.0400 0.0400
	Ke 0.0000 0.0000 0.0000
	map_Ka RoadSectionT.jpg
	map_Kd RoadSectionT.jpg
